\relax 
\select@language{english}
\@writefile{toc}{\select@language{english}}
\@writefile{lof}{\select@language{english}}
\@writefile{lot}{\select@language{english}}
\citation{bm}
\citation{bm}
\@writefile{toc}{\contentsline {section}{\numberline {1}Why BAGmovies?}{4}}
\@writefile{toc}{\contentsline {section}{\numberline {2}Requirement Analysis}{4}}
\@writefile{lof}{\contentsline {figure}{\numberline {1}{\ignorespaces BAGmovies.com homepage}}{4}}
\newlabel{hp}{{1}{4}}
\@writefile{toc}{\contentsline {section}{\numberline {3}Functional Architecture of the System}{5}}
\@writefile{lof}{\contentsline {figure}{\numberline {2}{\ignorespaces Functional Architecture of the Recommendation Engine}}{5}}
\newlabel{fa}{{2}{5}}
\@writefile{toc}{\contentsline {section}{\numberline {4}Strategy Outline}{6}}
\@writefile{toc}{\contentsline {subsection}{\numberline {4.1}Top-rated Approach}{6}}
\@writefile{toc}{\contentsline {subsection}{\numberline {4.2}Social Approach}{6}}
\@writefile{toc}{\contentsline {subsection}{\numberline {4.3}Associative Approach}{7}}
\@writefile{toc}{\contentsline {subsection}{\numberline {4.4}Tag-based Approach}{7}}
\@writefile{toc}{\contentsline {section}{\numberline {5}Initial Project Scheduling}{8}}
\@writefile{lof}{\contentsline {figure}{\numberline {3}{\ignorespaces Expected timeline}}{8}}
\newlabel{tl}{{3}{8}}
\@writefile{toc}{\contentsline {section}{\numberline {6}Software Prototype}{8}}
\bibcite{bm}{1}
\@writefile{lof}{\contentsline {figure}{\numberline {4}{\ignorespaces Mock-up}}{9}}
\newlabel{prototype}{{4}{9}}
