\relax 
\select@language{english}
\@writefile{toc}{\select@language{english}}
\@writefile{lof}{\select@language{english}}
\@writefile{lot}{\select@language{english}}
\citation{bm}
\@writefile{toc}{\contentsline {section}{\numberline {1}Executive Summary}{4}}
\citation{bm}
\@writefile{lof}{\contentsline {figure}{\numberline {1}{\ignorespaces Cost, Revenues and EBTIA in a 5 years plan}}{5}}
\newlabel{rev}{{1}{5}}
\@writefile{toc}{\contentsline {section}{\numberline {2}User's Manual}{5}}
\@writefile{toc}{\contentsline {subsection}{\numberline {2.1}Description of the different functionalities of the IP System}{5}}
\@writefile{lof}{\contentsline {figure}{\numberline {2}{\ignorespaces BAGmovies.com homepage}}{5}}
\newlabel{hp}{{2}{5}}
\@writefile{toc}{\contentsline {subsection}{\numberline {2.2}Examples of use}{6}}
\@writefile{lof}{\contentsline {figure}{\numberline {3}{\ignorespaces An output example}}{6}}
\newlabel{out}{{3}{6}}
\@writefile{toc}{\contentsline {subsection}{\numberline {2.3}Interactions of the system}{7}}
\@writefile{toc}{\contentsline {section}{\numberline {3}Technical/System Manual}{7}}
\@writefile{toc}{\contentsline {subsection}{\numberline {3.1}Functional Architecture of the System}{7}}
\@writefile{lof}{\contentsline {figure}{\numberline {4}{\ignorespaces Functional Architecture of the Recommendation Engine}}{8}}
\newlabel{fa}{{4}{8}}
\@writefile{toc}{\contentsline {section}{\numberline {4}Solution Design}{8}}
\@writefile{toc}{\contentsline {subsection}{\numberline {4.1}Top-rated approach}{8}}
\@writefile{toc}{\contentsline {subsection}{\numberline {4.2}Collaborative-filtering approach}{8}}
\@writefile{toc}{\contentsline {subsection}{\numberline {4.3}Social (Associative) approach}{9}}
\@writefile{toc}{\contentsline {subsection}{\numberline {4.4}The resulting hybrid approach}{9}}
\@writefile{toc}{\contentsline {subsection}{\numberline {4.5}Further extension}{10}}
\@writefile{lot}{\contentsline {table}{\numberline {1}{\ignorespaces Cost Analysis}}{11}}
\newlabel{cost}{{1}{11}}
\@writefile{toc}{\contentsline {section}{\numberline {5}Economic Cost Analysis}{11}}
\@writefile{toc}{\contentsline {section}{\numberline {6}Sustainability/Environmental Analysis}{12}}
\@writefile{toc}{\contentsline {section}{\numberline {7}Final IS Project Scheduling}{12}}
\@writefile{lof}{\contentsline {figure}{\numberline {5}{\ignorespaces Project Timeline}}{12}}
\newlabel{tl}{{5}{12}}
\@writefile{toc}{\contentsline {section}{\numberline {8}The IS Project Time Sheet}{12}}
\@writefile{lot}{\contentsline {table}{\numberline {2}{\ignorespaces Timesheet}}{13}}
\newlabel{ts}{{2}{13}}
\bibcite{bm}{1}
